N = [4,6,8,9,10,12,14,15,16,18,20,21,22,24,25,26,27,28,30,32,33,34,35,36,38,39,40,42,44,45,46,48,49,50]
Primes = [42535295865117307932921825928971026459,9671406556917033397649483,4611686018427388039,36028797018963971,1125899906842679,2199023255579,34359738421,8589934609,2147483659,134217757,33554467,8388617,4194319,1048583,1048583,524309,262147,131101,65537,32771,32771,16411,16411,8209,8209,4099,4099,2053,2053,2053,1031,1031,1031,1031]
Norms_targets = [6883/10,707,7209/10,3629/5,7323/10,3669/5,7389/10,3724/5,3777/5,7463/10,775,7511/10,1513/2,1521/2,3937/5,3932/5,3867/5,3846/5,3888/5,7787/10,4077/5,7889/10,4052/5,3897/5,8157/10,3858/5,4004/5,3893/5,7923/10,4199/5,7731/10,8417/10,4179/5,4187/5]
Norms_outputs_Guillevic = [2192/5,457,4713/10,5571/10,479,2408/5,2429/5,5729/10,2506/5,993/2,2584/5,2917/5,5077/10,5111/10,678,5323/10,2998/5,5161/10,5271/10,525,6407/10,2699/5,7043/10,5363/10,2791/5,3031/5,1095/2,2672/5,5421/10,3338/5,533,5939/10,3849/5,1167/2]
Norms_outputs = [2192/5,4569/10,470,557,4767/10,4777/10,4807/10,571,4953/10,4897/10,5071/10,2896/5,2489/5,2491/5,6739/10,520,5913/10,2497/5,2543/5,5071/10,630,5173/10,3476/5,2568/5,535,5919/10,520,2536/5,1039/2,1301/2,506,2789/5,3779/5,5543/10]
S = [0.0,0.1,0.3,0.0,0.4,0.7,0.9,0.2,1.2,1.4,1.7,0.6,2.1,2.5,0.4,2.8,1.1,3.2,3.9,4.2,1.8,5.0,1.1,5.5,5.7,2.7,6.5,7.2,6.9,4.0,8.2,10.4,2.5,8.8,]
S_theoretic = [0,0,0,0,0,0,0,0,0,0,0,0,0,2,0,3,1,6,8,10,7,12,5,14,15,11,18,19,20,13,21,22,5,23]
Norms_targets_euclidean = [205072642041369358440366599339795021824/5,61464608185879372006162432/5,34703167905059481088/5,290717039197811452/5,9596385299115042/5,41540533121607/10,354197633111/5,92126520607/5,47591593407/10,635464327/2,420389914/5,43142459/2,55011931/5,28862039/10,14799038/5,7505301/5,769576,1954544/5,2037013/10,1050671/10,1066673/10,542193/10,274816/5,140113/5,287441/10,145781/10,73606/5,37913/5,77671/10,15683/2,39817/10,20329/5,41107/10,20778/5]
Norms_outputs_Guillevic_euclidean = [19333318910568929792/5,2200463278541,17425129473/10,917840958453/10,297049021/10,7123168/5,1901089/10,44420073/10,50517,67387/5,35237/5,260001/5,26393/10,13953/10,182731/2,2069/2,59709/10,2692/5,3999/10,1476/5,17089/10,2191/10,4122,1619/10,1687/10,2449/5,626/5,461/5,961/10,705/2,357/5,371/5,9231/10,779/10]
Norms_outputs_euclidean = [19333318910568929792/5,479299795231099/10,11405297614,642246258896/5,1263708143/10,62759717/10,6270051/10,6380002,769841/5,35850,93317/5,373024/5,33327/5,17112/5,556999/5,2424,8807,6062/5,4681/5,3228/5,12594/5,2416/5,51917/10,1683/5,3397/10,7043/10,2499/10,882/5,831/5,2601/5,251/2,155,11029/10,651/5]